Name             Stmts   Miss Branch BrPart  Cover   Missing
------------------------------------------------------------
Netflix.py          70     17      6      1    76%   26-29, 88-89, 94-95, 99-100, 103-110, 132-133, 22->26
TestNetflix.py      23      0      0      0   100%
------------------------------------------------------------
TOTAL               93     17      6      1    82%
